<?xml version="1.0" encoding="UTF-8" standalone="no"?>
<!-- Generator: Adobe Illustrator 19.0.0, SVG Export Plug-In . SVG Version: 6.00 Build 0)  -->

<svg
   xmlns:dc="http://purl.org/dc/elements/1.1/"
   xmlns:cc="http://creativecommons.org/ns#"
   xmlns:rdf="http://www.w3.org/1999/02/22-rdf-syntax-ns#"
   xmlns:svg="http://www.w3.org/2000/svg"
   xmlns="http://www.w3.org/2000/svg"
   xmlns:sodipodi="http://sodipodi.sourceforge.net/DTD/sodipodi-0.dtd"
   xmlns:inkscape="http://www.inkscape.org/namespaces/inkscape"
   version="1.1"
   id="Layer_1"
   x="0px"
   y="0px"
   viewBox="0 0 490 490"
   style="enable-background:new 0 0 490 490;"
   xml:space="preserve"
   width="512"
   height="512"
   sodipodi:docname="1527779.svg"
   inkscape:export-filename="/home/joan/Desktop/Projecte 3A/app/resources/icon.png"
   inkscape:export-xdpi="192"
   inkscape:export-ydpi="192"
   inkscape:version="0.92.3 (2405546, 2018-03-11)"><metadata
   id="metadata41"><rdf:RDF><cc:Work
       rdf:about=""><dc:format>image/svg+xml</dc:format><dc:type
         rdf:resource="http://purl.org/dc/dcmitype/StillImage" /></cc:Work></rdf:RDF></metadata><defs
   id="defs39">
	
	
	
	
	
	
	
	
	
	
	
	
	
	
</defs><sodipodi:namedview
   pagecolor="#ffffff"
   bordercolor="#666666"
   borderopacity="1"
   objecttolerance="10"
   gridtolerance="10"
   guidetolerance="10"
   inkscape:pageopacity="0"
   inkscape:pageshadow="2"
   inkscape:window-width="1920"
   inkscape:window-height="1057"
   id="namedview37"
   showgrid="false"
   showguides="true"
   inkscape:guide-bbox="true"
   inkscape:zoom="0.4609375"
   inkscape:cx="648.04221"
   inkscape:cy="274.0361"
   inkscape:window-x="0"
   inkscape:window-y="0"
   inkscape:window-maximized="1"
   inkscape:current-layer="Layer_1"><sodipodi:guide
     position="475.98517,417.84958"
     orientation="0,1"
     id="guide4606"
     inkscape:locked="false" /><sodipodi:guide
     position="83.569915,366.7214"
     orientation="1,0"
     id="guide4608"
     inkscape:locked="false" /></sodipodi:namedview>
<circle
   id="circle2"
   r="245"
   cy="245"
   cx="245"
   style="fill:#3880ff;fill-opacity:1" /><path
   inkscape:connector-curvature="0"
   id="path4"
   d="M 397.196,178.509 H 380.533 V 72.014 h 16.663 c 6.536,0 11.835,5.299 11.835,11.835 v 82.824 c 0,6.537 -5.299,11.836 -11.835,11.836 z"
   style="fill:#151a1c" /><path
   inkscape:connector-curvature="0"
   id="path6"
   d="m 91.381,115.269 h 20.956 V 72.014 H 91.381 c -4.166,0 -7.543,3.377 -7.543,7.543 v 28.169 c 0,4.166 3.377,7.543 7.543,7.543 z"
   style="fill:#151a1c" /><path
   inkscape:connector-curvature="0"
   id="path8"
   d="m 91.381,164.812 h 20.956 V 121.557 H 91.381 c -4.166,0 -7.543,3.377 -7.543,7.543 v 28.169 c 0,4.166 3.377,7.543 7.543,7.543 z"
   style="fill:#151a1c" /><path
   inkscape:connector-curvature="0"
   id="path4-3"
   d="M 95.674001,178.509 H 112.337 V 72.014 H 95.674001 c -6.536,0 -11.834995,5.299 -11.834995,11.835001 v 82.824009 c 0,6.537 5.298995,11.83599 11.834995,11.83599 z"
   style="fill:#151a1c;stroke-width:1.00000012" /><path
   inkscape:connector-curvature="0"
   id="path10"
   d="m 398.013,55.319 v 381.03 c -41.93,33.58 -95.12,53.65 -153.01,53.65 -57.9,0 -111.09,-20.08 -153.02,-53.66 V 55.319 c 0,-0.57 0.01,-1.13 0.03,-1.69 0.89,-24.5 21.03,-44.08 45.74,-44.08 h 214.49 c 24.71,0 44.85,19.58 45.74,44.07 0.02,0.56 0.03,1.13 0.03,1.7 z"
   style="fill:#2f373b" /><path
   inkscape:connector-curvature="0"
   id="path12"
   d="m 385.543,101.979 v 305.13 c 0,6.26 -2.78,11.86 -7.16,15.63 -3.62,3.15 -8.35,5.05 -13.51,5.05 h -239.74 c -11.42,0 -20.68,-9.26 -20.68,-20.68 v -305.13 c 0,-11.42 9.26,-20.68 20.68,-20.68 h 239.74 c 11.42,0 20.67,9.26 20.67,20.68 z"
   style="fill:#ffffff" /><path
   inkscape:connector-curvature="0"
   id="path14"
   d="m 285,52.313 h -80 c -4.143,0 -7.5,-3.358 -7.5,-7.5 0,-4.142 3.357,-7.5 7.5,-7.5 h 80 c 4.143,0 7.5,3.358 7.5,7.5 0,4.142 -3.357,7.5 -7.5,7.5 z"
   style="fill:#151a1c" /><circle
   id="circle16"
   r="14.999"
   cy="461.90601"
   cx="245"
   style="fill:#151a1c" /><path
   inkscape:connector-curvature="0"
   id="path18"
   d="m 385.543,101.979 v 168.32 l -189,-189 h 168.33 c 11.42,0 20.67,9.26 20.67,20.68 z"
   style="fill:#3b9cb7" /><g
   id="g24">
		<polygon
   id="polygon20"
   points="175.933,393.999 244.993,248.039 314.063,393.999 244.993,361.089 "
   style="fill:#f75454" />
		<polygon
   id="polygon22"
   points="175.933,393.999 244.993,248.039 244.993,361.089 "
   style="fill:#d12c50" />
	</g><path
   inkscape:connector-curvature="0"
   id="path26"
   d="m 261.563,149.399 -157.11,157.11 v -204.53 c 0,-11.42 9.26,-20.68 20.68,-20.68 h 68.33 z"
   style="fill:#55d485" /><polygon
   id="polygon28"
   points="164.763,81.299 212.683,81.299 385.543,254.159 385.543,302.079 "
   style="fill:#ffe05c" /><polygon
   id="polygon30"
   points="104.453,176.329 196.473,84.309 220.433,108.269 104.453,224.249 "
   style="fill:#ffe05c" /><polygon
   id="polygon32"
   points="104.453,289.709 253.163,140.999 277.123,164.959 104.453,337.619 "
   style="fill:#ffe05c" />















</svg>